<svg xmlns="http://www.w3.org/2000/svg" width="20" height="32" viewBox="0 0 20 32" fill="none">
  <path fill-rule="evenodd" clip-rule="evenodd" d="M9.72945 26.589L10.3128 26.589L10.3128 29.9326L16.8762 25.9507L16.8717 25.948L17.4341 25.6074L18 25.9507L10.0215 30.7909L2.04397 25.9507L2.60386 25.6111L3.86357 26.3739L9.72945 29.9326L9.72945 26.589Z" fill="#354859"/>
  <path d="M10.3128 26.589L11.2 26.589L11.2 25.7017L10.3128 25.7017L10.3128 26.589ZM9.72945 26.589L9.72945 25.7017L8.84221 25.7017L8.84221 26.589L9.72945 26.589ZM10.3128 29.9326L9.42553 29.9326L9.42553 31.5086L10.773 30.6911L10.3128 29.9326ZM16.8762 25.9507L17.3364 26.7093L18.5868 25.9507L17.3364 25.1921L16.8762 25.9507ZM16.8717 25.948L16.4121 25.1891L15.16 25.9473L16.4116 26.7066L16.8717 25.948ZM17.4341 25.6074L17.8943 24.8489L17.4345 24.5699L16.9745 24.8485L17.4341 25.6074ZM18 25.9507L18.4602 26.7093L19.7106 25.9507L18.4602 25.1921L18 25.9507ZM10.0215 30.7909L9.56132 31.5494L10.0215 31.8286L10.4817 31.5494L10.0215 30.7909ZM2.04397 25.9507L1.58378 25.1921L0.333422 25.9507L1.58374 26.7093L2.04397 25.9507ZM2.60386 25.6111L3.06344 24.8521L2.60345 24.5736L2.14368 24.8525L2.60386 25.6111ZM3.86357 26.3739L4.32377 25.6153L4.32316 25.615L3.86357 26.3739ZM9.72945 29.9326L9.26925 30.6911L10.6167 31.5086L10.6167 29.9326L9.72945 29.9326ZM10.3128 25.7017L9.72945 25.7017L9.72945 27.4762L10.3128 27.4762L10.3128 25.7017ZM11.2 29.9326L11.2 26.589L9.42553 26.589L9.42553 29.9326L11.2 29.9326ZM16.416 25.1921L9.85257 29.174L10.773 30.6911L17.3364 26.7093L16.416 25.1921ZM16.4116 26.7066L16.4161 26.7093L17.3364 25.1921L17.3319 25.1894L16.4116 26.7066ZM16.9745 24.8485L16.4121 25.1891L17.3313 26.7069L17.8937 26.3664L16.9745 24.8485ZM18.4602 25.1921L17.8943 24.8489L16.9739 26.366L17.5398 26.7093L18.4602 25.1921ZM10.4817 31.5494L18.4602 26.7093L17.5398 25.1921L9.56136 30.0323L10.4817 31.5494ZM1.58374 26.7093L9.56132 31.5494L10.4818 30.0323L2.50419 25.1922L1.58374 26.7093ZM2.14368 24.8525L1.58378 25.1921L2.50415 26.7093L3.06404 26.3696L2.14368 24.8525ZM4.32316 25.615L3.06344 24.8521L2.14427 26.37L3.40398 27.1328L4.32316 25.615ZM10.1896 29.174L4.32377 25.6153L3.40338 27.1325L9.26925 30.6911L10.1896 29.174ZM8.84221 26.589L8.84221 29.9326L10.6167 29.9326L10.6167 26.589L8.84221 26.589Z" fill="#354859"/>
  <rect x="10.6369" y="1.21517" width="28.1588" height="1.2315" transform="rotate(90 10.6369 1.21517)" fill="#354859" stroke="#354859" stroke-width="1.10905"/>
</svg>