<svg width="40" height="40" viewBox="0 0 40 40" fill="none" xmlns="http://www.w3.org/2000/svg">
<path d="M0.288542 39.5771V36.3271H36.0385V0.577116H39.2885V36.3271C39.2885 37.2209 38.9703 37.986 38.3339 38.6224C37.6974 39.2589 36.9323 39.5771 36.0385 39.5771H0.288542ZM26.2837 30.3688C25.2397 30.3688 24.3476 29.997 23.6073 29.2535C22.867 28.5101 22.4969 27.6163 22.4969 26.5723C22.4969 25.5283 22.8686 24.6361 23.6121 23.8959C24.3556 23.1556 25.2493 22.7854 26.2934 22.7854C27.3374 22.7854 28.2295 23.1572 28.9698 23.9007C29.7101 24.6441 30.0802 25.5379 30.0802 26.5819C30.0802 27.6259 29.7085 28.5181 28.965 29.2584C28.2215 29.9986 27.3278 30.3688 26.2837 30.3688ZM5.70521 20.0771V16.8271H14.2635L0.234375 2.79795L2.50937 0.522949L16.5385 14.5521V5.99378H19.7885V20.0771H5.70521Z" fill="#292728"/>
</svg>
