<svg width="34" height="28" viewBox="0 0 34 28" fill="none" xmlns="http://www.w3.org/2000/svg">
<path d="M7.69873 13.165H26.9028V10.6602H7.69873V13.165ZM7.69873 19.8447H20.2231V17.3398H7.69873V19.8447ZM3.10645 27.3594C2.43848 27.3594 1.854 27.1019 1.35303 26.587C0.852051 26.0721 0.601562 25.4946 0.601562 24.8545V3.14551C0.601562 2.50537 0.852051 1.92786 1.35303 1.41296C1.854 0.898071 2.43848 0.640625 3.10645 0.640625H14.8376L17.3425 3.14551H31.4951C32.1353 3.14551 32.7128 3.40295 33.2277 3.91785C33.7426 4.43274 34 5.01025 34 5.65039V24.8545C34 25.4946 33.7426 26.0721 33.2277 26.587C32.7128 27.1019 32.1353 27.3594 31.4951 27.3594H3.10645ZM3.10645 24.8545H31.4951V5.65039H16.2988L13.7939 3.14551H3.10645V24.8545Z" fill="#292728"/>
</svg>
